module app

require (
	github.com/garyburd/redigo v1.6.0
	github.com/gin-contrib/sse v0.0.0-20170109093832-22d885f9ecc7 // indirect
	github.com/gin-gonic/gin v1.3.0
	github.com/golang/protobuf v1.2.0 // indirect
	github.com/gorilla/websocket v1.4.0 // indirect
	github.com/json-iterator/go v1.1.5 // indirect
	github.com/mattn/go-isatty v0.0.4 // indirect
	github.com/modern-go/concurrent v0.0.0-20180306012644-bacd9c7ef1dd // indirect
	github.com/modern-go/reflect2 v1.0.1 // indirect
	github.com/ugorji/go/codec v0.0.0-20181209151446-772ced7fd4c2 // indirect
	golang.org/x/sys v0.0.0-20181221143128-b4a75ba826a6 // indirect
	gopkg.in/go-playground/validator.v8 v8.18.2 // indirect
	gopkg.in/olahol/melody.v1 v1.0.0-20170518105555-d52139073376
	gopkg.in/yaml.v2 v2.2.2 // indirect
)
